module code.uplex.de/uplex-varnish/k8s-ingress

require (
	code.uplex.de/uplex-varnish/varnishapi v0.0.0-20191205154529-31e610a4139d
	github.com/go-openapi/strfmt v0.19.0
	github.com/golang/groupcache v0.0.0-20181024230925-c65c006176ff // indirect
	github.com/google/go-cmp v0.3.0
	github.com/googleapis/gnostic v0.2.0 // indirect
	github.com/haproxytech/models v1.2.4
	github.com/imdario/mergo v0.3.6 // indirect
	github.com/prometheus/client_golang v0.9.2
	github.com/sirupsen/logrus v1.2.0
	gopkg.in/inf.v0 v0.9.1 // indirect
	k8s.io/api v0.16.4
	k8s.io/apimachinery v0.16.4
	k8s.io/client-go v0.16.4
)
